Starting with Data
…
Although this dataset has been cleaned, it still contains missing data. THe missing data is represented by the word "NULL" in the dataset.

You are going load the data in R's memory using the function read_csv() from the readr package which is part of the tidyverse. So, before we can use the read_csv() function, we need to load the package. Also, as the missing data is encoded as "NULL" in the dataset, we can pass that information on to the function via the na argument so that the missing values will be imported as R NA values.

library(tidyverse)
interviews <- read_csv("data/SAFI_clean.csv", na = "NULL")

This statement doesn't produce any output because, as you might recall, assignments don't display anything. If we want to check that our data has been loaded, we can see the contents of the data frame by typing its name: interviews. In RStudio you will also see it appear in the 'Environment' tab.

interviews
## Try also
## View(interviews)

# A tibble: 131 x 14
   key_ID village interview_date      no_membrs years_liv respondent_wall…
    <int> <chr>   <dttm>                  <int>     <int> <chr>           
 1      1 God     2016-11-17 00:00:00         3         4 muddaub         
 2      1 God     2016-11-17 00:00:00         7         9 muddaub         
 3      3 God     2016-11-17 00:00:00        10        15 burntbricks     
 4      4 God     2016-11-17 00:00:00         7         6 burntbricks     
 5      5 God     2016-11-17 00:00:00         7        40 burntbricks     
 6      6 God     2016-11-17 00:00:00         3         3 muddaub         
 7      7 God     2016-11-17 00:00:00         6        38 muddaub         
 8      8 Chirod… 2016-11-16 00:00:00        12        70 burntbricks     
 9      9 Chirod… 2016-11-16 00:00:00         8         6 burntbricks     
10     10 Chirod… 2016-12-16 00:00:00        12        23 burntbricks     
# ... with 121 more rows, and 8 more variables: rooms <int>,
#   memb_assoc <chr>, affect_conflicts <chr>, liv_count <int>,
#   items_owned <chr>, no_meals <int>, months_lack_food <chr>,
#   instanceID <chr>
…
## first element in the 6th column (as a vector)
interviews[1, 6]

# A tibble: 1 x 1
  respondent_wall_type
  <chr>               
1 muddaub             

## first column of the data frame (as a vector)
interviews[, 1]

# A tibble: 131 x 1
   key_ID
    <int>
 1      1
 2      1
 3      3
 4      4
 5      5
 6      6
 7      7
 8      8
 9      9
10     10
# ... with 121 more rows

## first column of the data frame (as a data.frame)
interviews[1]

# A tibble: 131 x 1
   key_ID
    <int>
 1      1
 2      1
 3      3
 4      4
 5      5
 6      6
 7      7
 8      8
 9      9
10     10
# ... with 121 more rows
…
## equivalent to head_interviews <- head(interviews)
head_interviews <- interviews[1:6, ]

: is a special function that creates numeric vectors of integers in increasing or decreasing order, test 1:10 and 10:1 for instance.

You can also exclude certain indices of a data frame using the "-" sign:

interviews[, -1]          # The whole data frame, except the first column

# A tibble: 131 x 13
   village interview_date      no_membrs years_liv respondent_wall… rooms
   <chr>   <dttm>                  <int>     <int> <chr>            <int>
 1 God     2016-11-17 00:00:00         3         4 muddaub              1
 2 God     2016-11-17 00:00:00         7         9 muddaub              1
 3 God     2016-11-17 00:00:00        10        15 burntbricks          1
 4 God     2016-11-17 00:00:00         7         6 burntbricks          1
 5 God     2016-11-17 00:00:00         7        40 burntbricks          1
 6 God     2016-11-17 00:00:00         3         3 muddaub              1
 7 God     2016-11-17 00:00:00         6        38 muddaub              1
 8 Chirod… 2016-11-16 00:00:00        12        70 burntbricks          3
 9 Chirod… 2016-11-16 00:00:00         8         6 burntbricks          1
10 Chirod… 2016-12-16 00:00:00        12        23 burntbricks          5
# ... with 121 more rows, and 7 more variables: memb_assoc <chr>,
#   affect_conflicts <chr>, liv_count <int>, items_owned <chr>,
#   no_meals <int>, months_lack_food <chr>, instanceID <chr>
…
Let's extract our interview_date column and inspect the structure:

dates <- interviews$interview_date
str(dates)

 POSIXct[1:131], format: "2016-11-17" "2016-11-17" "2016-11-17" "2016-11-17" "2016-11-17" ...

When we imported the data in R, read_csv() recognized that this column contained date information. We can now use the day(), month() and  year() functions to extract this information from the date, and create new columns in our data frame to store it:

interviews$day <- day(dates)
interviews$month <- month(dates)
interviews$year <- year(dates)
interviews

# A tibble: 131 x 17
   key_ID village interview_date      no_membrs years_liv respondent_wall…
    <int> <chr>   <dttm>                  <int>     <int> <chr>           
 1      1 God     2016-11-17 00:00:00         3         4 muddaub         
 2      1 God     2016-11-17 00:00:00         7         9 muddaub         
 3      3 God     2016-11-17 00:00:00        10        15 burntbricks     
 4      4 God     2016-11-17 00:00:00         7         6 burntbricks     
 5      5 God     2016-11-17 00:00:00         7        40 burntbricks     
 6      6 God     2016-11-17 00:00:00         3         3 muddaub         
 7      7 God     2016-11-17 00:00:00         6        38 muddaub         
 8      8 Chirod… 2016-11-16 00:00:00        12        70 burntbricks     
 9      9 Chirod… 2016-11-16 00:00:00         8         6 burntbricks     
10     10 Chirod… 2016-12-16 00:00:00        12        23 burntbricks     
# ... with 121 more rows, and 11 more variables: rooms <int>,
#   memb_assoc <chr>, affect_conflicts <chr>, liv_count <int>,
#   items_owned <chr>, no_meals <int>, months_lack_food <chr>,
#   instanceID <chr>, day <int>, month <dbl>, year <dbl>
…
